<?xml version="1.0" encoding="utf-8"?>
<!-- Generator: Adobe Illustrator 18.0.0, SVG Export Plug-In . SVG Version: 6.00 Build 0)  -->
<!DOCTYPE svg PUBLIC "-//W3C//DTD SVG 1.1//EN" "http://www.w3.org/Graphics/SVG/1.1/DTD/svg11.dtd">
<svg version="1.1" id="Layer_1" xmlns="http://www.w3.org/2000/svg" xmlns:xlink="http://www.w3.org/1999/xlink" x="0px" y="0px"
	 viewBox="0 0 250 250" enable-background="new 0 0 250 250" xml:space="preserve">
<title>check</title>
<desc>Created with Sketch.</desc>
<g id="web">
	<g id="icons" transform="translate(-977.000000, -60.000000)">
		<path id="check" d="M1070.7,285c-7.8,0-15.6-3.4-21.8-10l-62.5-66.6c-12.5-13.4-12.5-33.4,0-46.6c12.5-13.4,32.8-13.4,43.8,0
			l40.6,43.4l103.1-110c12.5-13.4,31.3-13.4,43.8,0s12.5,33.4,0,46.6l-125,133.3C1086.4,281.6,1078.5,285,1070.7,285z"/>
	</g>
</g>
</svg>
