<?xml version="1.0" encoding="utf-8"?>
<!-- Generator: Adobe Illustrator 18.0.0, SVG Export Plug-In . SVG Version: 6.00 Build 0)  -->
<!DOCTYPE svg PUBLIC "-//W3C//DTD SVG 1.1//EN" "http://www.w3.org/Graphics/SVG/1.1/DTD/svg11.dtd">
<svg version="1.1" id="Layer_1" xmlns="http://www.w3.org/2000/svg" xmlns:xlink="http://www.w3.org/1999/xlink" x="0px" y="0px"
	 viewBox="-109 -109 250 250" enable-background="new -109 -109 250 250" xml:space="preserve">
<polygon points="141,-79 111,-109 16,-14 -79,-109 -109,-79 -14,16 -109,111 -79,141 16,46 111,141 141,111 46,16 "/>
</svg>
