<?xml version="1.0" encoding="utf-8"?>
<!-- Generator: Adobe Illustrator 18.0.0, SVG Export Plug-In . SVG Version: 6.00 Build 0)  -->
<!DOCTYPE svg PUBLIC "-//W3C//DTD SVG 1.1//EN" "http://www.w3.org/Graphics/SVG/1.1/DTD/svg11.dtd">
<svg version="1.1" id="Layer_1" xmlns="http://www.w3.org/2000/svg" xmlns:xlink="http://www.w3.org/1999/xlink" x="0px" y="0px"
	 viewBox="0 0 250 250" enable-background="new 0 0 250 250" xml:space="preserve">
<path d="M125,205.1c-5.4,0-9.8-4.4-9.8-9.8v-31.3c0-5.4,4.4-9.8,9.8-9.8s9.8,4.4,9.8,9.8v31.3C134.8,200.7,130.4,205.1,125,205.1z
	 M234.4,132.8v93.8c0,12.9-10.5,23.4-23.4,23.4H39.1c-12.9,0-23.4-10.5-23.4-23.4v-93.8c0-12.9,10.5-23.4,23.4-23.4h7.8V78.1
	C46.9,35,82-0.1,125.2,0c43.2,0.1,77.9,35.7,77.9,78.9v30.5h7.8C223.9,109.4,234.4,119.9,234.4,132.8z M62.5,109.4h125V78.1
	c0-34.5-28-62.5-62.5-62.5s-62.5,28-62.5,62.5V109.4z M218.8,226.6v-93.8c0-4.3-3.5-7.8-7.8-7.8H39.1c-4.3,0-7.8,3.5-7.8,7.8v93.8
	c0,4.3,3.5,7.8,7.8,7.8h171.9C215.2,234.4,218.8,230.9,218.8,226.6z"/>
</svg>
