<?xml version="1.0" encoding="utf-8"?>
<!-- Generator: Adobe Illustrator 18.0.0, SVG Export Plug-In . SVG Version: 6.00 Build 0)  -->
<!DOCTYPE svg PUBLIC "-//W3C//DTD SVG 1.1//EN" "http://www.w3.org/Graphics/SVG/1.1/DTD/svg11.dtd">
<svg version="1.1" id="Layer_1" xmlns="http://www.w3.org/2000/svg" xmlns:xlink="http://www.w3.org/1999/xlink" x="0px" y="0px"
	 viewBox="-115 -115 250 250" enable-background="new -115 -115 250 250" xml:space="preserve">
<g>
	<path d="M130.3-24.8c-3.8-3-9-3.6-13.4-1.4L52.3,6.1L20.7-46.4C16.2-54,3.8-54-0.7-46.4L-32.3,6.1l-64.7-32.3
		c-4.3-2.2-9.6-1.6-13.4,1.4c-3.8,3.1-5.5,8.1-4.3,12.8l22.4,89.4c-6.2,4.6-10.2,11.8-10.2,20.1V110c0,13.8,11.2,25,25,25h175
		c13.8,0,25-11.2,25-25V97.5c0-8.2-4.1-15.5-10.2-20.1L134.6-12C135.8-16.7,134.1-21.7,130.3-24.8z M97.5,110h-175V97.5h175
		L97.5,110z M87.7,72.5H-67.7l-16-64.2l50.7,25.4c5.8,2.9,13,0.8,16.3-4.8L10-15.7l26.8,44.6c3.4,5.6,10.5,7.7,16.3,4.8l50.7-25.4
		L87.7,72.5z"/>
	<path d="M10-65c13.8,0,25-11.2,25-25s-11.2-25-25-25c-13.8,0-25,11.2-25,25S-3.8-65,10-65z"/>
</g>
</svg>
