<svg width="53" height="43" viewBox="0 0 53 43" fill="none" xmlns="http://www.w3.org/2000/svg">
<path d="M18 11.5789C18 11.6891 18.0033 11.7994 18.0082 11.9089C18.1928 16.4066 22.1476 20 27.0003 20C31.8508 20 35.8055 16.4066 35.9901 11.9089H36V8.42109C36 3.77072 31.9694 -1.50576e-08 27.0003 -1.50576e-08C22.0288 -1.50576e-08 18 3.77072 18 8.42109C18 8.53132 18.0033 8.64155 18.0082 8.75108V11.2489C18.0033 11.3584 18 11.4687 18 11.5789ZM28.1242 16.7767C28.5082 16.732 28.8847 16.6649 29.2505 16.577V17.5353C28.8847 17.6556 28.5082 17.745 28.1242 17.8059V16.7767ZM25.8748 17.8059C25.4909 17.745 25.1135 17.6556 24.7494 17.5353V16.577C25.1168 16.665 25.4925 16.732 25.8748 16.7767V17.8059ZM22.5001 16.284C22.4375 16.2324 22.3765 16.1799 22.3155 16.126C21.9086 15.759 21.5592 15.3511 21.2675 14.9133C21.653 15.2109 22.065 15.4799 22.5001 15.715V16.284ZM31.4981 16.284V15.715C31.9331 15.4799 32.3451 15.2109 32.7307 14.9133C32.4407 15.3512 32.0914 15.759 31.6827 16.126C31.6234 16.1799 31.5607 16.2323 31.4981 16.284ZM27.0003 2.10547C30.7203 2.10547 33.7491 4.93872 33.7491 8.42109C33.7491 11.9035 30.7203 14.7367 27.0003 14.7367C23.2779 14.7367 20.2508 11.9035 20.2508 8.42109C20.2508 4.93872 23.2779 2.10547 27.0003 2.10547Z" fill="#212529"/>
<path d="M27.0007 12C27.5532 12 28 11.4966 28 10.8752V4.12479C28 3.50343 27.5531 3 27.0007 3C26.4483 3 26 3.50343 26 4.12479V10.8752C26 11.4966 26.4483 12 27.0007 12Z" fill="#212529"/>
<path d="M46.6751 28.2814C46.329 28.2543 45.9473 28.24 45.5301 28.24C42.8128 28.24 38.5817 28.8104 32.785 29.8174C32.0636 27.7924 27.4791 26.9017 27.4791 26.9017C27.4791 26.9017 17.5853 26.3727 11.2709 26.0318C10.8682 26.0111 10.4784 26 10.1032 26C1.73873 26 0 31.143 0 31.143V36.4708C0.00320894 39.5267 9.55973 41.0211 9.59203 41.0275C17.1825 42.5044 26.5133 43 26.5133 43C26.5133 43 52.0804 33.1044 52.7533 32.526C53.423 31.9491 53.1286 28.7913 46.6751 28.2814ZM26.1592 40.7979C24.1843 40.6768 16.4159 40.1383 10.0207 38.8923L9.97948 38.886L9.93901 38.8797C9.92038 38.8765 8.07172 38.5834 6.09036 38.0113C3.28574 37.2036 2.42368 36.4914 2.20858 36.2683V31.6065C2.37441 31.3102 2.73505 30.7604 3.37549 30.2028C4.02815 29.6356 4.8279 29.18 5.75393 28.8469C6.99124 28.4025 8.4542 28.1762 10.1032 28.1762C10.4428 28.1762 10.7955 28.1858 11.1504 28.2048C16.9723 28.5171 25.8389 28.9919 27.1847 29.0652C27.4613 29.1258 28.1309 29.2883 28.8611 29.5527C29.5793 29.814 30.0515 30.0657 30.3394 30.2602C28.0386 30.7955 21.1159 32.3155 16.2055 32.3697C15.6006 32.376 15.1138 32.8604 15.1138 33.4579C15.1138 34.0586 15.6087 34.5461 16.2185 34.5461C16.2217 34.5461 16.2266 34.5445 16.2298 34.5445V34.5461C18.8435 34.5174 22.2368 34.1096 26.3159 33.3352C28.6862 32.886 30.569 32.4462 31.3162 32.2662L31.3226 32.2806L33.1664 31.9603C39.2316 30.9072 43.162 30.4164 45.5299 30.4164C45.8889 30.4164 46.2124 30.4275 46.4971 30.4499C48.4606 30.6044 49.5475 31.0155 50.1137 31.3357C45.8988 33.1025 34.0724 37.7341 26.1592 40.7979Z" fill="#212529"/>
</svg>
