<svg width="112" height="112" viewBox="0 0 112 112" fill="none" xmlns="http://www.w3.org/2000/svg">
<path d="M0 44.625L56 11.375L112 44.625V93.625H0V44.625Z" fill="#D07C40"/>
<path d="M12.25 2.62491H99.7498C101.675 2.62491 103.25 4.19985 103.25 6.12494V67.3748C103.25 69.2998 101.675 70.8748 99.7498 70.8748H12.25C10.3249 70.8748 8.75 69.2998 8.75 67.3748V6.12494C8.75022 4.20008 10.3252 2.62491 12.25 2.62491Z" fill="#EFEFEF"/>
<path d="M92.4003 9.62496L98.0003 2.62491H99.7503C101.675 2.62491 103.25 4.19985 103.25 6.12494V9.62496H92.4003ZM46.9004 9.62496L52.5004 2.62491H64.7503L59.1503 9.62496H46.9004ZM8.75049 9.62496V6.12494C8.75049 4.19985 10.3254 2.62491 12.2505 2.62491H21.0006L15.4004 9.62496H8.75049Z" fill="#26A6D1"/>
<path d="M112 104.125C112 107.012 109.637 109.375 106.75 109.375H5.25004C2.36253 109.375 0 107.012 0 104.125V44.625L56 69.125L112 44.625V104.125H112Z" fill="#EFC75E"/>
<path d="M112 104.125C112 107.012 109.637 109.375 106.75 109.375H5.25004C2.36253 109.375 0 107.012 0 104.125V93.6247L112 44.6248V104.125Z" fill="#E8C15B"/>
<path d="M35.6124 33.6875L36.3124 37.3626L30.7125 28.6125L22.8375 40.8624C22.75 41.9999 27.825 42.8748 34.125 42.8748C40.425 42.8748 45.5 41.9999 45.5 40.8624L38.5874 30.6249L35.6124 33.6875ZM36.3124 28.8749C37.5375 28.8749 38.4999 27.9125 38.4999 26.6874C38.4999 25.4624 37.5375 24.5 36.3124 24.5C35.0874 24.5 34.125 25.4624 34.125 26.6874C34.125 27.9125 35.0874 28.8749 36.3124 28.8749ZM54.25 28H89.2499C90.2123 28 90.9999 27.2124 90.9999 26.25C90.9999 25.2876 90.2123 24.5 89.2499 24.5H54.25C53.2876 24.5 52.5 25.2876 52.5 26.25C52.5 27.2124 53.2874 28 54.25 28ZM89.2499 31.5H54.25C53.2876 31.5 52.5 32.2876 52.5 33.25C52.5 34.2125 53.2876 35 54.25 35H89.2499C90.2123 35 90.9999 34.2125 90.9999 33.25C90.9999 32.2874 90.2123 31.5 89.2499 31.5ZM80.4998 38.4999H54.25C53.2876 38.4999 52.5 39.2874 52.5 40.2499C52.5 41.2123 53.2876 41.9999 54.25 41.9999H80.5C81.4625 41.9999 82.25 41.2123 82.25 40.2499C82.2498 39.2874 81.4625 38.4999 80.4998 38.4999Z" fill="#D6D9DB"/>
<path d="M69.6498 9.62496L75.2498 2.62491H87.4996L81.8997 9.62496H69.6498ZM24.1499 9.62496L29.7499 2.62491H41.9997L36.3998 9.62496H24.1499Z" fill="#E2574C"/>
</svg>
