<?xml version="1.0" encoding="utf-8"?>
<!-- Generator: Adobe Illustrator 18.0.0, SVG Export Plug-In . SVG Version: 6.00 Build 0)  -->
<!DOCTYPE svg PUBLIC "-//W3C//DTD SVG 1.1//EN" "http://www.w3.org/Graphics/SVG/1.1/DTD/svg11.dtd">
<svg version="1.1" id="Layer_1" xmlns="http://www.w3.org/2000/svg" xmlns:xlink="http://www.w3.org/1999/xlink" x="0px" y="0px"
	 viewBox="-18 -18 64 64" enable-background="new -18 -18 64 64" xml:space="preserve">
<g>
	
		<linearGradient id="SVGID_1_" gradientUnits="userSpaceOnUse" x1="23.3793" y1="37.8839" x2="7.3793" y2="0.5527" gradientTransform="matrix(1 0 0 -1 0 30)">
		<stop  offset="0" style="stop-color:#37AEE2"/>
		<stop  offset="1" style="stop-color:#1E96C8"/>
	</linearGradient>
	<path fill="url(#SVGID_1_)" d="M14,46c17.7,0,32-14.3,32-32c0-17.7-14.3-32-32-32C-3.7-18-18-3.7-18,14C-18,31.7-3.7,46,14,46z"/>
	<path fill="#C8DAEA" d="M8.1,28.7c-1,0-0.9-0.4-1.2-1.4l-3-10L27.3,3.3"/>
	<path fill="#A9C9DD" d="M8.1,28.7c0.8,0,1.2-0.4,1.6-0.8l4.3-4.1l-5.3-3.2"/>
	
		<linearGradient id="SVGID_2_" gradientUnits="userSpaceOnUse" x1="14.2623" y1="15.3538" x2="17.6815" y2="4.294" gradientTransform="matrix(1 0 0 -1 0 30)">
		<stop  offset="0" style="stop-color:#EFF7FC"/>
		<stop  offset="1" style="stop-color:#FFFFFF"/>
	</linearGradient>
	<path fill="url(#SVGID_2_)" d="M8.7,20.5L21.6,30c1.5,0.8,2.5,0.4,2.9-1.4l5.2-24.7c0.5-2.2-0.8-3.1-2.2-2.5L-3.3,13.3
		c-2.1,0.8-2.1,2-0.4,2.5l7.9,2.5L22.5,6.8c0.9-0.5,1.7-0.2,1,0.3"/>
</g>
</svg>
