<?xml version="1.0" encoding="utf-8"?>
<!-- Generator: Adobe Illustrator 18.0.0, SVG Export Plug-In . SVG Version: 6.00 Build 0)  -->
<!DOCTYPE svg PUBLIC "-//W3C//DTD SVG 1.1//EN" "http://www.w3.org/Graphics/SVG/1.1/DTD/svg11.dtd">
<svg version="1.1" id="Layer_1" xmlns="http://www.w3.org/2000/svg" xmlns:xlink="http://www.w3.org/1999/xlink" x="0px" y="0px"
	 viewBox="0 0 51 18" enable-background="new 0 0 51 18" xml:space="preserve">
<g>
	<rect fill="#FFFFFF" width="51" height="18"/>
	<path fill="#191F73" d="M22.2,16.8h-4l2.5-15.5h4L22.2,16.8z"/>
	<path fill="#191F73" d="M36.6,1.7c-0.8-0.3-2-0.7-3.6-0.7c-3.9,0-6.7,2.1-6.7,5.1c0,2.2,2,3.5,3.5,4.2c1.5,0.8,2.1,1.3,2.1,1.9
		c0,1-1.2,1.5-2.4,1.5c-1.6,0-2.4-0.2-3.7-0.8l-0.5-0.2l-0.6,3.5c0.9,0.4,2.6,0.8,4.4,0.8c4.2,0,6.9-2.1,6.9-5.3
		c0-1.8-1-3.1-3.3-4.2c-1.4-0.7-2.2-1.2-2.2-1.9c0-0.7,0.7-1.3,2.3-1.3c1.3,0,2.2,0.3,3,0.6L36.1,5L36.6,1.7z"/>
	<path fill="#191F73" d="M41.9,11.3c0.3-0.9,1.6-4.3,1.6-4.3c0,0,0.3-0.9,0.5-1.5l0.3,1.3c0,0,0.8,3.7,0.9,4.5
		C44.6,11.3,42.7,11.3,41.9,11.3z M46.8,1.3h-3.1c-0.9,0-1.7,0.3-2.1,1.3l-5.9,14.2h4.2c0,0,0.7-1.9,0.8-2.3c0.5,0,4.5,0,5.1,0
		c0.1,0.5,0.5,2.3,0.5,2.3H50L46.8,1.3z"/>
	<path fill="#191F73" d="M14.9,1.3l-3.9,10.6l-0.4-2.1c-0.7-2.5-3-5.2-5.5-6.5l3.6,13.5h4.2l6.2-15.5H14.9z"/>
	<path fill="#191F73" d="M7.5,1.3H1.1L1,1.6C6,2.9,9.3,6,10.6,9.7L9.2,2.6C9,1.6,8.3,1.3,7.5,1.3z"/>
</g>
</svg>
