<svg width="24" height="24" viewBox="0 0 24 24" fill="none" xmlns="http://www.w3.org/2000/svg">
<path fill-rule="evenodd" clip-rule="evenodd" d="M0 12C0 5.37258 5.37258 0 12 0C18.6274 0 24 5.37258 24 12C24 18.6274 18.6274 24 12 24C5.37258 24 0 18.6274 0 12Z" fill="#4C6C91"/>
<path fill-rule="evenodd" clip-rule="evenodd" d="M12.6278 15.938C12.6278 15.938 12.8588 15.9128 12.9771 15.7881C13.0854 15.6738 13.0816 15.4581 13.0816 15.4581C13.0816 15.4581 13.0672 14.4509 13.5437 14.3022C14.0132 14.1559 14.6161 15.2762 15.2559 15.707C15.7392 16.0327 16.1061 15.9614 16.1061 15.9614L17.8158 15.938C17.8158 15.938 18.7098 15.884 18.286 15.1938C18.2509 15.1373 18.0387 14.6832 17.0151 13.7503C15.9427 12.7738 16.0867 12.9318 17.3776 11.2424C18.1639 10.2137 18.4782 9.58567 18.3799 9.31712C18.2866 9.06025 17.7081 9.12846 17.7081 9.12846L15.7837 9.14014C15.7837 9.14014 15.6409 9.12109 15.5351 9.18315C15.4318 9.24399 15.3648 9.38595 15.3648 9.38595C15.3648 9.38595 15.0606 10.1818 14.6543 10.859C13.7972 12.2871 13.4548 12.3627 13.3145 12.2742C12.9884 12.0671 13.0697 11.4434 13.0697 11.0003C13.0697 9.61578 13.2839 9.03874 12.6534 8.88941C12.4443 8.83963 12.2903 8.80706 11.755 8.80153C11.0683 8.79477 10.4873 8.80399 10.158 8.96192C9.93887 9.06701 9.76984 9.30176 9.87314 9.31528C10.0002 9.33187 10.2882 9.39148 10.441 9.5955C10.6382 9.85913 10.6313 10.4503 10.6313 10.4503C10.6313 10.4503 10.7446 12.08 10.3665 12.2822C10.1073 12.4211 9.75169 12.1378 8.98728 10.8418C8.596 10.1781 8.30051 9.44433 8.30051 9.44433C8.30051 9.44433 8.24354 9.30729 8.14149 9.23355C8.01816 9.14444 7.84599 9.11679 7.84599 9.11679L6.01731 9.12846C6.01731 9.12846 5.74247 9.13584 5.64168 9.25321C5.55215 9.35707 5.63479 9.57276 5.63479 9.57276C5.63479 9.57276 7.06656 12.8611 8.68803 14.5185C10.1749 16.0376 11.8627 15.938 11.8627 15.938H12.6278Z" fill="white"/>
</svg>
