<?xml version="1.0" encoding="utf-8"?>
<!-- Generator: Adobe Illustrator 18.0.0, SVG Export Plug-In . SVG Version: 6.00 Build 0)  -->
<!DOCTYPE svg PUBLIC "-//W3C//DTD SVG 1.1//EN" "http://www.w3.org/Graphics/SVG/1.1/DTD/svg11.dtd">
<svg version="1.1" id="Layer_1" xmlns="http://www.w3.org/2000/svg" xmlns:xlink="http://www.w3.org/1999/xlink" x="0px" y="0px"
	 viewBox="-2 -2 28 28" enable-background="new -2 -2 28 28" xml:space="preserve">
<g>
	<path fill="#25D366" d="M12,26c7.7,0,14-6.3,14-14c0-7.7-6.3-14-14-14C4.3-2-2,4.3-2,12C-2,19.7,4.3,26,12,26z"/>
	<path fill="#FDFDFD" d="M12.5,19.8L12.5,19.8c-1.4,0-2.8-0.4-4-1l-4.4,1.2l1.2-4.3c-0.7-1.3-1.1-2.7-1.1-4.2c0-4.6,3.7-8.3,8.3-8.3
		c2.2,0,4.3,0.9,5.9,2.4c1.6,1.6,2.4,3.7,2.4,5.9C20.8,16.1,17.1,19.8,12.5,19.8z M8.7,17.3l0.3,0.2c1.1,0.6,2.3,1,3.5,1h0
		c3.8,0,6.9-3.1,6.9-6.9c0-1.8-0.7-3.6-2-4.9c-1.3-1.3-3-2-4.9-2c-3.8,0-6.9,3.1-6.9,6.9c0,1.3,0.4,2.6,1.1,3.7l0.2,0.3L6.1,18
		L8.7,17.3z M16.7,13.4c-0.1-0.1-0.2-0.1-0.4-0.2c-0.2-0.1-1.2-0.6-1.4-0.7c-0.2-0.1-0.3-0.1-0.5,0.1c-0.1,0.2-0.5,0.7-0.7,0.8
		c-0.1,0.1-0.2,0.2-0.5,0.1c-0.2-0.1-0.9-0.3-1.7-1c-0.6-0.6-1-1.2-1.2-1.4c-0.1-0.2,0-0.3,0.1-0.4c0.1-0.1,0.2-0.2,0.3-0.4
		C10.9,10.1,11,10,11,9.9c0.1-0.1,0-0.3,0-0.4C11,9.4,10.6,8.4,10.4,8C10.2,7.6,10,7.6,9.9,7.6c-0.1,0-0.3,0-0.4,0S9.2,7.7,9,7.9
		C8.8,8.1,8.2,8.6,8.2,9.6c0,1,0.7,2,0.8,2.2c0.1,0.1,1.5,2.2,3.6,3.1c0.5,0.2,0.9,0.3,1.2,0.4c0.5,0.2,1,0.1,1.3,0.1
		c0.4-0.1,1.2-0.5,1.4-1C16.7,13.9,16.7,13.5,16.7,13.4z"/>
</g>
</svg>
